VLSI Design/Resources/Verilog Resources/Verilog Session/Codes/mux4x1/mux4x1_test.vcd
$date
	Thu Aug 19 15:35:11 2021
$end
$version
	Icarus Verilog
$end
$timescale
	1ps
$end
$scope module mux4x1_test $end
$var wire 1 ! y $end
$var reg 1 " a0 $end
$var reg 1 # a1 $end
$var reg 1 $ a2 $end
$var reg 1 % a3 $end
$var reg 1 & s0 $end
$var reg 1 ' s1 $end
$scope module uut $end
$var wire 1 " a0 $end
$var wire 1 # a1 $end
$var wire 1 $ a2 $end
$var wire 1 % a3 $end
$var wire 1 & s0 $end
$var wire 1 ' s1 $end
$var wire 1 ( y2 $end
$var wire 1 ) y1 $end
$var wire 1 ! y $end
$scope module mux1 $end
$var wire 1 " a0 $end
$var wire 1 # a1 $end
$var wire 1 & s $end
$var wire 1 * sbar $end
$var wire 1 ) y $end
$var wire 1 + y1 $end
$var wire 1 , y2 $end
$upscope $end
$scope module mux2 $end
$var wire 1 $ a0 $end
$var wire 1 % a1 $end
$var wire 1 & s $end
$var wire 1 - sbar $end
$var wire 1 ( y $end
$var wire 1 . y1 $end
$var wire 1 / y2 $end
$upscope $end
$scope module mux3 $end
$var wire 1 ) a0 $end
$var wire 1 ( a1 $end
$var wire 1 ' s $end
$var wire 1 0 sbar $end
$var wire 1 ! y $end
$var wire 1 1 y1 $end
$var wire 1 2 y2 $end
$upscope $end
$upscope $end
$upscope $end
$enddefinitions $end
#0
$dumpvars
02
01
10
0/
0.
1-
0,
0+
1*
0)
0(
0'
0&
0%
0$
0#
0"
0!
$end
#5000
1%
#10000
1(
1.
0%
1$
#15000
1%
#20000
0(
0.
0%
0$
1#
#25000
1%
#30000
1(
1.
0%
1$
#35000
1%
#40000
1!
11
0(
1)
0.
1+
0%
0$
0#
1"
#45000
1%
#50000
1(
1.
0%
1$
#55000
1%
#60000
0(
0.
0%
0$
1#
#65000
1%
#70000
1(
1.
0%
1$
#75000
1%
#80000
0!
01
0(
0)
0.
0+
0*
0-
0%
0$
0#
0"
1&
#85000
1(
1/
1%
#90000
0(
0/
0%
1$
#95000
1(
1/
1%
#100000
1!
11
0(
1)
0/
1,
0%
0$
1#
#105000
1(
1/
1%
#110000
0(
0/
0%
1$
#115000
1(
1/
1%
#120000
0!
01
0(
0)
0/
0,
0%
0$
0#
1"
#125000
1(
1/
1%
#130000
0(
0/
0%
1$
#135000
1(
1/
1%
#140000
1!
11
0(
1)
0/
1,
0%
0$
1#
#145000
1(
1/
1%
#150000
0(
0/
0%
1$
#155000
1(
1/
1%
#160000
0!
0)
0(
01
1*
0,
1-
0/
00
02
0%
0$
0#
0"
0&
1'
#165000
1%
#170000
1!
12
1(
1.
0%
1$
#175000
1%
#180000
0!
02
0(
0.
0%
0$
1#
#185000
1%
#190000
1!
12
1(
1.
0%
1$
#195000
1%
#200000
0!
02
0(
1)
0.
1+
0%
0$
0#
1"
#205000
1%
#210000
1!
12
1(
1.
0%
1$
#215000
1%
#220000
0!
02
0(
0.
0%
0$
1#
#225000
1%
#230000
1!
12
1(
1.
0%
1$
#235000
1%
#240000
0!
02
0(
0)
0.
0+
0*
0-
0%
0$
0#
0"
1&
#245000
1!
12
1(
1/
1%
#250000
0!
02
0(
0/
0%
1$
#255000
1!
12
1(
1/
1%
#260000
0!
02
0(
1)
0/
1,
0%
0$
1#
#265000
1!
12
1(
1/
1%
#270000
0!
02
0(
0/
0%
1$
#275000
1!
12
1(
1/
1%
#280000
0!
02
0(
0)
0/
0,
0%
0$
0#
1"
#285000
1!
12
1(
1/
1%
#290000
0!
02
0(
0/
0%
1$
#295000
1!
12
1(
1/
1%
#300000
0!
02
0(
1)
0/
1,
0%
0$
1#
#305000
1!
12
1(
1/
1%
#310000
0!
02
0(
0/
0%
1$
#315000
1!
12
1(
1/
1%
#320000
0)
0(
01
0!
1*
0,
1-
0/
10
02
0%
0$
0#
0"
0&
0'
